<svg id="Component_31_1" fill="#fff" data-name="Component 31 – 1" xmlns="http://www.w3.org/2000/svg" width="16" height="14" viewBox="0 0 16 14">
  <g id="Group_4451" data-name="Group 4451" transform="translate(1.565)">
    <g id="Group_4450" data-name="Group 4450">
      <path id="Path_148" data-name="Path 148" d="M38.846,100.456a3.282,3.282,0,1,0,3.2,3.281A3.245,3.245,0,0,0,38.846,100.456Zm0,5.1a1.823,1.823,0,1,1,1.778-1.823A1.8,1.8,0,0,1,38.846,105.56Z" transform="translate(-35.646 -100.456)" fill="#fff"/>
    </g>
  </g>
  <g id="Group_4453" data-name="Group 4453" transform="translate(0 5.08)">
    <g id="Group_4452" data-name="Group 4452">
      <path id="Path_149" data-name="Path 149" d="M9.365,216.993a4.771,4.771,0,0,0-4.6-3.659A4.832,4.832,0,0,0,0,218.219v1.094a.72.72,0,0,0,.711.729.72.72,0,0,0,.711-.729v-1.094a3.389,3.389,0,0,1,3.342-3.427,3.342,3.342,0,0,1,3.222,2.563.71.71,0,0,0,.866.525A.731.731,0,0,0,9.365,216.993Z" transform="translate(0 -213.334)" fill="#fff"/>
    </g>
  </g>
  <g id="Group_4443" data-name="Group 4443" transform="translate(8.036 2.212)">
    <g id="Group_4442" data-name="Group 4442" transform="translate(0 0)">
      <path id="Path_144" data-name="Path 144" d="M186.289,149.6a3.282,3.282,0,1,0,3.2,3.281A3.245,3.245,0,0,0,186.289,149.6Zm0,5.1a1.823,1.823,0,1,1,1.778-1.823A1.8,1.8,0,0,1,186.289,154.707Z" transform="translate(-183.089 -149.603)" fill="#fff"/>
    </g>
  </g>
  <g id="Group_4445" data-name="Group 4445" transform="translate(6.471 7.292)">
    <g id="Group_4444" data-name="Group 4444" transform="translate(0 0)">
      <path id="Path_145" data-name="Path 145" d="M152.208,262.481a4.832,4.832,0,0,0-4.765,4.885v1.094a.711.711,0,1,0,1.422,0v-1.094a3.343,3.343,0,1,1,6.685,0v1.094a.711.711,0,1,0,1.422,0v-1.094A4.832,4.832,0,0,0,152.208,262.481Z" transform="translate(-147.443 -262.481)" fill="#fff"/>
    </g>
  </g>
</svg>
